{
  "documentation": "tikui",
  "expose": {
    "2023": "2023",
    "2024": "2024",
    "glyph": "glyph",
    "node_modules/@fontsource/inter/files": "font/inter/files",
    "node_modules/@fontsource/inter/index.css": "font/inter/index.css",
    "node_modules/@fontsource/inter/500.css": "font/inter/500.css",
    "node_modules/@fontsource/inter/700.css": "font/inter/700.css"
  }
}
