<?xml version="1.0" standalone="no"?>
<!DOCTYPE svg PUBLIC "-//W3C//DTD SVG 1.1//EN" "http://www.w3.org/Graphics/SVG/1.1/DTD/svg11.dtd">
<svg xmlns="http://www.w3.org/2000/svg">
<metadata>Copyright (C) 2023 by original authors @ fontello.com</metadata>
<defs>
<font id="lyon-craft-icons" horiz-adv-x="1000" >
<font-face font-family="lyon-craft-icons" font-weight="400" font-stretch="normal" units-per-em="1000" ascent="850" descent="-150" />
<missing-glyph horiz-adv-x="1000" />
<glyph glyph-name="right" unicode="&#xe800;" d="M0 347q0 26 18 43t43 17h642l-242 244q-19 18-19 44t19 42q17 19 42 19t44-19l390-390-390-391q-20-18-44-18t-42 18-19 44 19 43l242 242h-642q-25 0-43 18t-18 44z" horiz-adv-x="938" />

<glyph glyph-name="discord" unicode="&#xe801;" d="M360 747c-73-13-142-35-206-66-131-200-166-394-148-586 86-65 170-105 252-131 20 28 39 58 54 90-30 12-58 26-85 42 7 5 14 11 21 17 164-78 343-78 505 0 7-6 14-12 21-17-27-16-56-30-86-42 16-32 34-62 54-90 83 26 167 66 253 131 21 222-35 415-148 586-65 31-134 53-206 66-9-17-19-39-27-56-76 12-152 12-228 0-7 17-17 39-26 56z m-25-327c50 0 90-47 89-104 0-56-39-103-89-103-50 0-90 47-90 103 0 57 39 104 90 104z m331 0c50 0 91-47 90-104 0-56-40-103-90-103-49 0-90 47-90 103 0 57 40 104 90 104z" horiz-adv-x="1000" />

<glyph glyph-name="left" unicode="&#xe802;" d="M0 353l390 391q19 18 44 18 25 0 43-18t18-44-18-43l-243-243h642q25 0 43-18t18-43-18-43-43-18h-642l243-243q18-18 18-44t-18-43-43-18-44 18z" horiz-adv-x="938" />

<glyph glyph-name="laptop" unicode="&#xf109;" d="M232 136q-37 0-63 26t-26 63v393q0 37 26 63t63 26h607q37 0 63-26t27-63v-393q0-37-27-63t-63-26h-607z m-18 482v-393q0-7 6-13t12-5h607q8 0 13 5t5 13v393q0 7-5 12t-13 6h-607q-7 0-12-6t-6-12z m768-518h89v-54q0-22-26-37t-63-16h-893q-36 0-63 16t-26 37v54h982z m-402-54q9 0 9 9t-9 9h-89q-9 0-9-9t9-9h89z" horiz-adv-x="1071.4" />

<glyph glyph-name="youtube-play" unicode="&#xf16a;" d="M397 221l270 139-270 141v-280z m103 481q94 0 181-3t128-5l41-2q0 0 9-1t13-2 13-2 16-5 16-7 17-11 16-15q4-3 9-10t16-33 15-56q4-36 7-76t3-64v-98q1-81-10-162-4-30-14-55t-18-35l-8-9q-7-8-16-15t-17-10-16-7-16-5-13-2-13-2-9-1q-140-11-350-11-115 2-201 4t-111 4l-28 3-20 2q-20 3-30 5t-29 12-31 23q-4 3-9 10t-16 33-15 56q-4 36-7 76t-3 64v98q-1 81 10 162 4 31 14 55t18 35l8 9q8 9 16 15t17 11 16 7 16 5 13 2 13 2 9 1q140 10 350 10z" horiz-adv-x="1000" />

<glyph glyph-name="twitch" unicode="&#xf1e8;" d="M500 608v-242h-81v242h81z m222 0v-242h-81v242h81z m0-424l141 141v444h-666v-585h182v-121l121 121h222z m222 666v-565l-242-242h-182l-121-122h-121v122h-222v646l61 161h827z" horiz-adv-x="1000" />

<glyph glyph-name="meetup" unicode="&#xf2e0;" d="M744 161q-2 14-15 19t-27 6-28 7-14 21q-3 27 19 78t41 101 18 71q-7 57-65 58-25 0-42-9l-1-1-3-2t-3-1-3-1-2 0-4 1-3 2-4 3q-1 1-5 4t-5 5-4 5-6 4-5 3-6 2-7 2q-16 2-26-2t-26-17q0-1-5-5t-7-6-8-6-9-3-10 2q-30 15-46 22-23 10-53-3t-42-36q-9-16-23-55t-24-74-23-75-12-40q-12-39 11-67t61-25q17 1 28 8t22 26q4 7 44 111t43 109q3 6 12 10t16 0q15-9 12-30-1-10-28-78t-28-74q-4-21 11-31t33-4 31 27q2 5 25 52t46 91 26 49q11 17 22 16 17 0 14-21-1-9-36-83t-39-89q-7-29 7-57t41-41q10-5 29-9t39-4 35 7 11 27z m-530-120q1-8-3-15t-13-9q-8-2-15 3t-8 13q-2 7 3 15t12 9 15-3 9-13z m318-147q7-9 5-21t-12-18-21-4-18 11q-6 10-4 21t11 18 21 5 18-12z m-433 453q-10-15-28-18t-32 7q-14 10-18 28t7 32q10 15 28 19t32-7q14-11 18-28t-7-33z m720-378q10-15 7-34t-19-29-34-8-29 19-7 35 19 29q15 11 33 7t30-19z m62 338q39-64 24-137t-75-116q-50-35-111-33-11-45-47-71t-80-25-79 32q-6-5-7-5-57-40-125-28t-108 71q-28 41-30 92-46 7-79 39t-45 71-1 85 45 78q-20 33-21 71t13 70 45 55 67 28q18 47 56 82t81 52 94 9 89-37q40 12 78 10t72-20 58-45 38-64 10-79q29-9 48-31t26-50-3-56-33-48z m-627 368q8-11 5-25t-13-21q-11-8-25-6t-21 14q-7 11-5 25t14 21q10 8 24 5t21-13z m89 157q2-9-3-17t-15-11-17 3-10 15q-2 10 4 17t14 10q9 3 17-3t10-14z m662-529q2-12-4-21t-17-12q-11-2-20 4t-12 17 4 21 17 12q11 2 20-4t12-17z m-371 498q9-15 5-33t-20-26q-15-9-32-5t-26 19q-9 16-5 33t19 27 33 5 26-20z m416-366q3-8-2-15t-13-10q-8-1-15 3t-9 13q-1 8 3 16t13 8q8 2 15-2t8-13z m-106 134q8-12 6-27t-15-24q-13-8-28-6t-23 16-6 27 15 24 28 6 23-16z" horiz-adv-x="1071.4" />
</font>
</defs>
</svg>
